/home/lenovo/LamdaAWS/src/main/java/com/rhytify/lambda/HashMapTest.java
/home/lenovo/LamdaAWS/src/main/java/com/rhytify/lambda/InstanceRequest.java
/home/lenovo/LamdaAWS/src/main/java/com/rhytify/lambda/StopEC2.java
/home/lenovo/LamdaAWS/src/main/java/com/rhytify/lambda/StartEC2.java
